
Node 2:  ###


Network

Node 1:  ###


Time Interval
{TopConv.inPLScounter1}
{TopConv.inPLScounter2}
{TopConv.inPLScounter3}
{TopConv.inPLScounter4}
{TopConv.inPLScounter5}


Encoder Testing
Node 3:  ###

Node 4:  ###

