Sampling #	Sampling Date/Time	Tasks Running	Thin Clients	Period (Min.)	Available Page Files (KB)	GDI Objects	User Objects	Available Virtual Memory (KB)	Allocated Virtual Memory (KB)	Available Physical Memory (KB)	Allocated Physical Memory (KB)	Physical Memory Load (%)
0	04/25/2015 - 08:54:07.751ms	ISSymbol		0	4194303	115	25	1843276	0	4194303	0	38
Sampling #	Sampling Date/Time	Tasks Running	Thin Clients	Period (Min.)	Available Page Files (KB)	GDI Objects	User Objects	Available Virtual Memory (KB)	Allocated Virtual Memory (KB)	Available Physical Memory (KB)	Allocated Physical Memory (KB)	Physical Memory Load (%)
0	04/25/2015 - 13:40:58.816ms	ISSymbol		0	4194303	145	50	1840936	0	4194303	0	37
1	04/25/2015 - 13:40:58.820ms	ISSymbol		0	4194303	145	50	1840936	0	4194303	0	37
Sampling #	Sampling Date/Time	Tasks Running	Thin Clients	Period (Min.)	Available Page Files (KB)	GDI Objects	User Objects	Available Virtual Memory (KB)	Allocated Virtual Memory (KB)	Available Physical Memory (KB)	Allocated Physical Memory (KB)	Physical Memory Load (%)
0	09/01/2015 - 14:07:43.101ms	ISSymbol		0	4194303	230	68	1829704	0	3521704	0	53
1	09/01/2015 - 14:07:59.516ms	ISSymbol		0	4194303	230	68	1829704	0	3520376	1328	53
2	09/01/2015 - 14:07:59.519ms	ISSymbol		0	4194303	230	68	1829704	0	3520372	1332	53
Sampling #	Sampling Date/Time	Tasks Running	Thin Clients	Period (Min.)	Available Page Files (KB)	GDI Objects	User Objects	Available Virtual Memory (KB)	Allocated Virtual Memory (KB)	Available Physical Memory (KB)	Allocated Physical Memory (KB)	Physical Memory Load (%)
0	09/01/2015 - 14:10:41.975ms	ISSymbol		0	4194303	187	67	1833676	0	3491016	0	54
1	09/01/2015 - 14:10:41.987ms	ISSymbol		0	4194303	187	67	1833676	0	3491004	12	54
Sampling #	Sampling Date/Time	Tasks Running	Thin Clients	Period (Min.)	Available Page Files (KB)	GDI Objects	User Objects	Available Virtual Memory (KB)	Allocated Virtual Memory (KB)	Available Physical Memory (KB)	Allocated Physical Memory (KB)	Physical Memory Load (%)
0	09/14/2015 - 09:40:05.762ms	ISSymbol		0	4194303	224	90	1835032	0	4194303	0	38
Sampling #	Sampling Date/Time	Tasks Running	Thin Clients	Period (Min.)	Available Page Files (KB)	GDI Objects	User Objects	Available Virtual Memory (KB)	Allocated Virtual Memory (KB)	Available Physical Memory (KB)	Allocated Physical Memory (KB)	Physical Memory Load (%)
0	10/18/2016 - 14:02:00.684ms	ISSymbol		0	4194303	198	35	1839432	0	1429908	0	65
Sampling #	Sampling Date/Time	Tasks Running	Thin Clients	Period (Min.)	Available Page Files (KB)	GDI Objects	User Objects	Available Virtual Memory (KB)	Allocated Virtual Memory (KB)	Available Physical Memory (KB)	Allocated Physical Memory (KB)	Physical Memory Load (%)
0	11/25/2016 - 22:04:59.353ms	ISSymbol		0	4194303	211	53	1828844	0	3893748	0	48
Sampling #	Sampling Date/Time	Tasks Running	Thin Clients	Period (Min.)	Available Page Files (KB)	GDI Objects	User Objects	Available Virtual Memory (KB)	Allocated Virtual Memory (KB)	Available Physical Memory (KB)	Allocated Physical Memory (KB)	Physical Memory Load (%)
0	11/25/2016 - 22:58:25.126ms	ISSymbol		0	4194303	202	52	1828780	0	4194303	0	41
Sampling #	Sampling Date/Time	Tasks Running	Thin Clients	Period (Min.)	Available Page Files (KB)	GDI Objects	User Objects	Available Virtual Memory (KB)	Allocated Virtual Memory (KB)	Available Physical Memory (KB)	Allocated Physical Memory (KB)	Physical Memory Load (%)
0	11/25/2016 - 23:08:32.421ms	ISSymbol		0	4194303	212	52	1826320	0	4194303	0	41
Sampling #	Sampling Date/Time	Tasks Running	Thin Clients	Period (Min.)	Available Page Files (KB)	GDI Objects	User Objects	Available Virtual Memory (KB)	Allocated Virtual Memory (KB)	Available Physical Memory (KB)	Allocated Physical Memory (KB)	Physical Memory Load (%)
0	11/25/2016 - 23:13:57.745ms	ISSymbol		0	4194303	212	52	1828932	0	4194303	0	43
1	11/25/2016 - 23:13:58.260ms	ISSymbol		0	4194303	212	53	1827856	1076	4194303	0	43
2	11/25/2016 - 23:14:19.072ms	ISSymbol		0	4194303	216	57	1827956	976	4194303	0	43
3	11/25/2016 - 23:16:43.096ms	ISSymbol		2	4194303	207	55	1827848	1084	4194303	0	43
Sampling #	Sampling Date/Time	Tasks Running	Thin Clients	Period (Min.)	Available Page Files (KB)	GDI Objects	User Objects	Available Virtual Memory (KB)	Allocated Virtual Memory (KB)	Available Physical Memory (KB)	Allocated Physical Memory (KB)	Physical Memory Load (%)
0	06/23/2018 - 10:08:10.844ms	ISSymbol		0	4194303	179	48	1720552	0	2097151	0	32
1	06/23/2018 - 10:08:11.055ms	ISSymbol		0	4194303	189	59	1728652	-8100	2097151	0	32
2	06/23/2018 - 10:08:11.092ms	ISSymbol		0	4194303	180	45	1728652	-8100	2097151	0	32
3	06/23/2018 - 10:08:11.126ms	ISSymbol		0	4194303	180	44	1728652	-8100	2097151	0	32
Sampling #	Sampling Date/Time	Tasks Running	Thin Clients	Period (Min.)	Available Page Files (KB)	GDI Objects	User Objects	Available Virtual Memory (KB)	Allocated Virtual Memory (KB)	Available Physical Memory (KB)	Allocated Physical Memory (KB)	Physical Memory Load (%)
0	06/29/2018 - 17:08:58.805ms	ISSymbol		0	4194303	204	48	1720444	0	2097151	0	39
1	06/29/2018 - 17:08:59.077ms	ISSymbol		0	4194303	216	61	1728544	-8100	2097151	0	39
2	06/29/2018 - 17:08:59.241ms	ISSymbol		0	4194303	218	64	1728544	-8100	2097151	0	39
3	06/29/2018 - 17:08:59.290ms	ISSymbol		0	4194303	208	46	1728544	-8100	2097151	0	39
4	06/29/2018 - 17:08:59.333ms	ISSymbol		0	4194303	208	45	1728544	-8100	2097151	0	39
5	06/29/2018 - 17:09:00.829ms	ISSymbol		0	4194303	248	66	1719620	824	2097151	0	39
Sampling #	Sampling Date/Time	Tasks Running	Thin Clients	Period (Min.)	Available Page Files (KB)	GDI Objects	User Objects	Available Virtual Memory (KB)	Allocated Virtual Memory (KB)	Available Physical Memory (KB)	Allocated Physical Memory (KB)	Physical Memory Load (%)
0	07/02/2018 - 12:33:12.772ms	ISSymbol		0	4194303	489	46	1706132	0	2097151	0	42
1	07/02/2018 - 12:33:12.894ms	ISSymbol		0	4194303	513	53	1706124	8	2097151	0	42
2	07/02/2018 - 12:33:13.070ms	ISSymbol		0	4194303	525	66	1706124	8	2097151	0	42
3	07/02/2018 - 12:33:13.113ms	ISSymbol		0	4194303	515	48	1706124	8	2097151	0	42
4	07/02/2018 - 12:33:13.422ms	ISSymbol		0	4194303	515	47	1714224	-8092	2097151	0	42
Sampling #	Sampling Date/Time	Tasks Running	Thin Clients	Period (Min.)	Available Page Files (KB)	GDI Objects	User Objects	Available Virtual Memory (KB)	Allocated Virtual Memory (KB)	Available Physical Memory (KB)	Allocated Physical Memory (KB)	Physical Memory Load (%)
0	07/02/2018 - 13:29:20.745ms	ISSymbol		0	4194303	226	44	1718296	0	2097151	0	45
1	07/02/2018 - 13:29:20.869ms	ISSymbol		0	4194303	250	51	1718288	8	2097151	0	45
2	07/02/2018 - 13:29:21.050ms	ISSymbol		0	4194303	262	64	1717264	1032	2097151	0	45
3	07/02/2018 - 13:29:21.086ms	ISSymbol		0	4194303	252	46	1717264	1032	2097151	0	45
4	07/02/2018 - 13:29:21.748ms	ISSymbol		0	4194303	252	45	1717264	1032	2097151	0	45
Sampling #	Sampling Date/Time	Tasks Running	Thin Clients	Period (Min.)	Available Page Files (KB)	GDI Objects	User Objects	Available Virtual Memory (KB)	Allocated Virtual Memory (KB)	Available Physical Memory (KB)	Allocated Physical Memory (KB)	Physical Memory Load (%)
0	07/02/2018 - 14:35:05.927ms	ISSymbol		0	4194303	340	48	1702924	0	2097151	0	49
1	07/02/2018 - 14:35:06.156ms	ISSymbol		0	4194303	352	61	1711024	-8100	2097151	0	49
2	07/02/2018 - 14:35:06.243ms	ISSymbol		0	4194303	354	64	1711024	-8100	2097151	0	49
3	07/02/2018 - 14:35:06.300ms	ISSymbol		0	4194303	344	46	1711024	-8100	2097151	0	49
4	07/02/2018 - 14:35:07.190ms	ISSymbol		0	4194303	404	84	1702100	824	2097151	0	49
Sampling #	Sampling Date/Time	Tasks Running	Thin Clients	Period (Min.)	Available Page Files (KB)	GDI Objects	User Objects	Available Virtual Memory (KB)	Allocated Virtual Memory (KB)	Available Physical Memory (KB)	Allocated Physical Memory (KB)	Physical Memory Load (%)
0	07/02/2018 - 14:37:23.659ms	ISSymbol		0	4194303	174	44	1727144	0	2097151	0	49
1	07/02/2018 - 14:37:23.786ms	ISSymbol		0	4194303	172	41	1727144	0	2097151	0	49
Sampling #	Sampling Date/Time	Tasks Running	Thin Clients	Period (Min.)	Available Page Files (KB)	GDI Objects	User Objects	Available Virtual Memory (KB)	Allocated Virtual Memory (KB)	Available Physical Memory (KB)	Allocated Physical Memory (KB)	Physical Memory Load (%)
0	07/05/2018 - 20:11:22.803ms	ISSymbol		0	4194303	244	38	1823456	0	2921868	0	61
1	07/05/2018 - 20:11:22.819ms	ISSymbol		0	4194303	268	45	1823448	8	2921880	-12	61
2	07/05/2018 - 20:11:22.831ms	ISSymbol		0	4194303	280	58	1823448	8	2921880	-12	61
3	07/05/2018 - 20:11:22.834ms	ISSymbol		0	4194303	270	40	1823448	8	2921916	-48	61
4	07/05/2018 - 20:11:22.862ms	ISSymbol		0	4194303	270	40	1823448	8	2921784	84	61
5	07/05/2018 - 20:13:00.651ms	ISSymbol		1	4194303	342	42	1820632	2824	2912184	9684	61
6	07/05/2018 - 20:13:00.653ms	ISSymbol		1	4194303	336	35	1820632	2824	2912160	9708	61
Sampling #	Sampling Date/Time	Tasks Running	Thin Clients	Period (Min.)	Available Page Files (KB)	GDI Objects	User Objects	Available Virtual Memory (KB)	Allocated Virtual Memory (KB)	Available Physical Memory (KB)	Allocated Physical Memory (KB)	Physical Memory Load (%)
0	07/05/2018 - 20:53:11.608ms	ISSymbol		0	4194303	291	42	1823360	0	3682132	0	51
1	07/05/2018 - 20:53:11.619ms	ISSymbol		0	4194303	303	55	1823360	0	3682036	96	51
2	07/05/2018 - 20:53:11.623ms	ISSymbol		0	4194303	305	58	1823360	0	3681992	140	51
3	07/05/2018 - 20:53:11.626ms	ISSymbol		0	4194303	295	40	1823360	0	3681944	188	51
4	07/05/2018 - 20:53:12.686ms	ISSymbol		0	4194303	360	78	1822748	612	3677244	4888	51
Sampling #	Sampling Date/Time	Tasks Running	Thin Clients	Period (Min.)	Available Page Files (KB)	GDI Objects	User Objects	Available Virtual Memory (KB)	Allocated Virtual Memory (KB)	Available Physical Memory (KB)	Allocated Physical Memory (KB)	Physical Memory Load (%)
0	07/05/2018 - 21:19:47.644ms	ISSymbol		0	4194303	238	38	1823452	0	3677236	0	51
1	07/05/2018 - 21:19:47.658ms	ISSymbol		0	4194303	262	45	1823444	8	3677228	8	51
2	07/05/2018 - 21:19:47.673ms	ISSymbol		0	4194303	274	58	1823444	8	3677228	8	51
3	07/05/2018 - 21:19:47.675ms	ISSymbol		0	4194303	264	40	1823444	8	3677216	20	51
4	07/05/2018 - 21:19:47.931ms	ISSymbol		0	4194303	264	40	1823444	8	3677224	12	51
5	07/05/2018 - 21:22:18.637ms	ISSymbol		2	4194303	336	42	1823216	236	3611148	66088	52
6	07/05/2018 - 21:22:18.639ms	ISSymbol		2	4194303	330	35	1823216	236	3611140	66096	52
Sampling #	Sampling Date/Time	Tasks Running	Thin Clients	Period (Min.)	Available Page Files (KB)	GDI Objects	User Objects	Available Virtual Memory (KB)	Allocated Virtual Memory (KB)	Available Physical Memory (KB)	Allocated Physical Memory (KB)	Physical Memory Load (%)
0	07/06/2018 - 11:28:49.408ms	ISSymbol		0	4194303	342	49	1696988	0	2097151	0	38
1	07/06/2018 - 11:28:49.637ms	ISSymbol		0	4194303	354	62	1705088	-8100	2097151	0	38
2	07/06/2018 - 11:28:49.693ms	ISSymbol		0	4194303	356	65	1705088	-8100	2097151	0	38
3	07/06/2018 - 11:28:49.728ms	ISSymbol		0	4194303	346	47	1705088	-8100	2097151	0	38
Sampling #	Sampling Date/Time	Tasks Running	Thin Clients	Period (Min.)	Available Page Files (KB)	GDI Objects	User Objects	Available Virtual Memory (KB)	Allocated Virtual Memory (KB)	Available Physical Memory (KB)	Allocated Physical Memory (KB)	Physical Memory Load (%)
0	07/06/2018 - 13:11:11.719ms	ISSymbol		0	4194303	503	48	1694356	0	2097151	0	40
1	07/06/2018 - 13:11:11.933ms	ISSymbol		0	4194303	515	61	1702456	-8100	2097151	0	40
2	07/06/2018 - 13:11:12.008ms	ISSymbol		0	4194303	517	64	1702456	-8100	2097151	0	40
3	07/06/2018 - 13:11:12.039ms	ISSymbol		0	4194303	507	46	1702456	-8100	2097151	0	40
4	07/06/2018 - 13:11:13.732ms	ISSymbol		0	4194303	569	87	1693536	820	2097151	0	40
Sampling #	Sampling Date/Time	Tasks Running	Thin Clients	Period (Min.)	Available Page Files (KB)	GDI Objects	User Objects	Available Virtual Memory (KB)	Allocated Virtual Memory (KB)	Available Physical Memory (KB)	Allocated Physical Memory (KB)	Physical Memory Load (%)
0	07/06/2018 - 18:11:13.524ms	ISSymbol		0	4194303	265	39	1821144	0	3794552	0	50
1	07/06/2018 - 18:11:13.537ms	ISSymbol		0	4194303	289	46	1821136	8	3794236	316	50
2	07/06/2018 - 18:11:13.549ms	ISSymbol		0	4194303	301	59	1821136	8	3794236	316	50
3	07/06/2018 - 18:11:13.551ms	ISSymbol		0	4194303	291	41	1821136	8	3794224	328	50
4	07/06/2018 - 18:11:13.568ms	ISSymbol		0	4194303	291	41	1821136	8	3794168	384	50
Sampling #	Sampling Date/Time	Tasks Running	Thin Clients	Period (Min.)	Available Page Files (KB)	GDI Objects	User Objects	Available Virtual Memory (KB)	Allocated Virtual Memory (KB)	Available Physical Memory (KB)	Allocated Physical Memory (KB)	Physical Memory Load (%)
0	07/06/2018 - 18:18:19.531ms	ISSymbol		0	4194303	178	39	1828400	0	3779504	0	50
1	07/06/2018 - 18:18:19.545ms	ISSymbol		0	4194303	202	46	1828392	8	3779428	76	50
2	07/06/2018 - 18:18:19.556ms	ISSymbol		0	4194303	214	59	1828392	8	3779348	156	50
3	07/06/2018 - 18:18:19.558ms	ISSymbol		0	4194303	204	41	1828392	8	3779316	188	50
Sampling #	Sampling Date/Time	Tasks Running	Thin Clients	Period (Min.)	Available Page Files (KB)	GDI Objects	User Objects	Available Virtual Memory (KB)	Allocated Virtual Memory (KB)	Available Physical Memory (KB)	Allocated Physical Memory (KB)	Physical Memory Load (%)
0	07/06/2018 - 18:29:39.320ms	ISSymbol		0	4194303	143	38	1832120	0	3804952	0	50
1	07/06/2018 - 18:29:39.334ms	ISSymbol		0	4194303	167	45	1832112	8	3804804	148	50
2	07/06/2018 - 18:29:39.346ms	ISSymbol		0	4194303	179	58	1832112	8	3804696	256	50
3	07/06/2018 - 18:29:39.348ms	ISSymbol		0	4194303	169	40	1832112	8	3804660	292	50
Sampling #	Sampling Date/Time	Tasks Running	Thin Clients	Period (Min.)	Available Page Files (KB)	GDI Objects	User Objects	Available Virtual Memory (KB)	Allocated Virtual Memory (KB)	Available Physical Memory (KB)	Allocated Physical Memory (KB)	Physical Memory Load (%)
0	07/06/2018 - 20:18:54.360ms	ISSymbol		0	4194303	388	40	1816336	0	3749068	0	50
1	07/06/2018 - 20:18:54.374ms	ISSymbol		0	4194303	412	47	1816328	8	3749060	8	50
2	07/06/2018 - 20:18:54.387ms	ISSymbol		0	4194303	424	60	1816328	8	3749080	-12	50
3	07/06/2018 - 20:18:54.388ms	ISSymbol		0	4194303	414	42	1816328	8	3749068	0	50
4	07/06/2018 - 20:18:54.619ms	ISSymbol		0	4194303	414	42	1816328	8	3749092	-24	50
Sampling #	Sampling Date/Time	Tasks Running	Thin Clients	Period (Min.)	Available Page Files (KB)	GDI Objects	User Objects	Available Virtual Memory (KB)	Allocated Virtual Memory (KB)	Available Physical Memory (KB)	Allocated Physical Memory (KB)	Physical Memory Load (%)
0	07/08/2018 - 16:01:21.925ms	ISSymbol		0	4194303	347	40	1816504	0	3149880	0	58
1	07/08/2018 - 16:01:21.939ms	ISSymbol		0	4194303	371	47	1816496	8	3149780	100	58
2	07/08/2018 - 16:01:21.954ms	ISSymbol		0	4194303	383	60	1816496	8	3149680	200	58
3	07/08/2018 - 16:01:21.956ms	ISSymbol		0	4194303	373	42	1816496	8	3149640	240	58
Sampling #	Sampling Date/Time	Tasks Running	Thin Clients	Period (Min.)	Available Page Files (KB)	GDI Objects	User Objects	Available Virtual Memory (KB)	Allocated Virtual Memory (KB)	Available Physical Memory (KB)	Allocated Physical Memory (KB)	Physical Memory Load (%)
0	07/08/2018 - 16:09:23.048ms	ISSymbol		0	4194303	152	38	1829536	0	3577672	0	53
1	07/08/2018 - 16:09:23.067ms	ISSymbol		0	4194303	176	45	1829528	8	3577548	124	53
2	07/08/2018 - 16:09:23.079ms	ISSymbol		0	4194303	188	58	1829528	8	3577476	196	53
3	07/08/2018 - 16:09:23.085ms	ISSymbol		0	4194303	178	40	1829528	8	3577392	280	53
Sampling #	Sampling Date/Time	Tasks Running	Thin Clients	Period (Min.)	Available Page Files (KB)	GDI Objects	User Objects	Available Virtual Memory (KB)	Allocated Virtual Memory (KB)	Available Physical Memory (KB)	Allocated Physical Memory (KB)	Physical Memory Load (%)
0	07/09/2018 - 11:51:08.487ms	ISSymbol		0	4194303	349	49	1699192	0	2097151	0	35
1	07/09/2018 - 11:51:08.720ms	ISSymbol		0	4194303	361	62	1707292	-8100	2097151	0	35
2	07/09/2018 - 11:51:08.794ms	ISSymbol		0	4194303	353	47	1707292	-8100	2097151	0	35
3	07/09/2018 - 11:51:08.850ms	ISSymbol		0	4194303	353	46	1707292	-8100	2097151	0	35
4	07/09/2018 - 11:51:10.747ms	ISSymbol		0	4194303	366	49	1698160	1032	2097151	0	35
5	07/09/2018 - 11:51:10.774ms	ISSymbol		0	4194303	360	42	1698160	1032	2097151	0	35
Sampling #	Sampling Date/Time	Tasks Running	Thin Clients	Period (Min.)	Available Page Files (KB)	GDI Objects	User Objects	Available Virtual Memory (KB)	Allocated Virtual Memory (KB)	Available Physical Memory (KB)	Allocated Physical Memory (KB)	Physical Memory Load (%)
0	07/10/2018 - 14:35:09.334ms	ISSymbol		0	4194303	221	45	1728876	0	2097151	0	36
1	07/10/2018 - 14:35:09.364ms	ISSymbol		0	4194303	219	42	1728876	0	2097151	0	36
2	07/10/2018 - 14:35:11.140ms	ISSymbol		0	4194303	291	90	1720956	7920	2097151	0	36
3	07/10/2018 - 14:35:11.269ms	ISSymbol		0	4194303	217	32	1717916	10960	2097151	0	36
Sampling #	Sampling Date/Time	Tasks Running	Thin Clients	Period (Min.)	Available Page Files (KB)	GDI Objects	User Objects	Available Virtual Memory (KB)	Allocated Virtual Memory (KB)	Available Physical Memory (KB)	Allocated Physical Memory (KB)	Physical Memory Load (%)
0	07/15/2018 - 16:07:44.717ms	ISSymbol		0	4194303	740	40	1798580	0	3310740	0	56
1	07/15/2018 - 16:07:44.733ms	ISSymbol		0	4194303	764	47	1790472	8108	3310736	4	56
2	07/15/2018 - 16:07:44.755ms	ISSymbol		0	4194303	776	60	1790472	8108	3310756	-16	56
3	07/15/2018 - 16:07:44.763ms	ISSymbol		0	4194303	776	60	1790472	8108	3310736	4	56
4	07/15/2018 - 16:07:44.765ms	ISSymbol		0	4194303	766	42	1790472	8108	3310724	16	56
5	07/15/2018 - 16:07:44.807ms	ISSymbol		0	4194303	766	42	1790472	8108	3310536	204	56
Sampling #	Sampling Date/Time	Tasks Running	Thin Clients	Period (Min.)	Available Page Files (KB)	GDI Objects	User Objects	Available Virtual Memory (KB)	Allocated Virtual Memory (KB)	Available Physical Memory (KB)	Allocated Physical Memory (KB)	Physical Memory Load (%)
0	07/16/2018 - 10:07:42.465ms	ISSymbol		0	4194303	290	46	1701288	0	2097151	0	41
1	07/16/2018 - 10:07:42.734ms	ISSymbol		0	4194303	314	53	1693180	8108	2097151	0	41
2	07/16/2018 - 10:07:42.977ms	ISSymbol		0	4194303	326	66	1701280	8	2097151	0	41
3	07/16/2018 - 10:07:43.015ms	ISSymbol		0	4194303	316	48	1701280	8	2097151	0	41
4	07/16/2018 - 10:07:43.046ms	ISSymbol		0	4194303	316	48	1701280	8	2097151	0	41
5	07/16/2018 - 10:07:44.971ms	ISSymbol		0	4194303	329	50	1701272	16	2097151	0	41
6	07/16/2018 - 10:07:45.011ms	ISSymbol		0	4194303	323	43	1701272	16	2097151	0	41
Sampling #	Sampling Date/Time	Tasks Running	Thin Clients	Period (Min.)	Available Page Files (KB)	GDI Objects	User Objects	Available Virtual Memory (KB)	Allocated Virtual Memory (KB)	Available Physical Memory (KB)	Allocated Physical Memory (KB)	Physical Memory Load (%)
0	07/16/2018 - 18:29:17.564ms	ISSymbol		0	4194303	136	44	1734416	0	2097151	0	45
1	07/16/2018 - 18:29:17.856ms	ISSymbol		0	4194303	160	51	1734408	8	2097151	0	45
2	07/16/2018 - 18:29:18.140ms	ISSymbol		0	4194303	172	64	1734408	8	2097151	0	45
3	07/16/2018 - 18:29:18.250ms	ISSymbol		0	4194303	162	46	1734408	8	2097151	0	46
4	07/16/2018 - 18:29:18.307ms	ISSymbol		0	4194303	162	45	1734408	8	2097151	0	46
5	07/16/2018 - 18:29:19.482ms	ISSymbol		0	4194303	176	48	1717084	17332	2097151	0	46
6	07/16/2018 - 18:29:19.516ms	ISSymbol		0	4194303	170	41	1717084	17332	2097151	0	46
Sampling #	Sampling Date/Time	Tasks Running	Thin Clients	Period (Min.)	Available Page Files (KB)	GDI Objects	User Objects	Available Virtual Memory (KB)	Allocated Virtual Memory (KB)	Available Physical Memory (KB)	Allocated Physical Memory (KB)	Physical Memory Load (%)
0	07/16/2018 - 18:58:03.375ms	ISSymbol		0	4194303	339	49	1687300	0	2097151	0	38
1	07/16/2018 - 18:58:03.616ms	ISSymbol		0	4194303	351	62	1695400	-8100	2097151	0	38
2	07/16/2018 - 18:58:03.661ms	ISSymbol		0	4194303	343	47	1695400	-8100	2097151	0	38
3	07/16/2018 - 18:58:03.699ms	ISSymbol		0	4194303	343	46	1695400	-8100	2097151	0	38
4	07/16/2018 - 18:58:05.779ms	ISSymbol		0	4194303	356	51	1687292	8	2097151	0	38
5	07/16/2018 - 18:58:05.811ms	ISSymbol		0	4194303	350	44	1687292	8	2097151	0	38
Sampling #	Sampling Date/Time	Tasks Running	Thin Clients	Period (Min.)	Available Page Files (KB)	GDI Objects	User Objects	Available Virtual Memory (KB)	Allocated Virtual Memory (KB)	Available Physical Memory (KB)	Allocated Physical Memory (KB)	Physical Memory Load (%)
0	07/16/2018 - 19:22:47.992ms	ISSymbol		0	4194303	233	45	1722092	0	2097151	0	38
1	07/16/2018 - 19:22:48.271ms	ISSymbol		0	4194303	257	52	1722084	8	2097151	0	38
2	07/16/2018 - 19:22:48.535ms	ISSymbol		0	4194303	269	65	1722084	8	2097151	0	38
3	07/16/2018 - 19:22:48.575ms	ISSymbol		0	4194303	259	47	1722084	8	2097151	0	38
4	07/16/2018 - 19:22:48.611ms	ISSymbol		0	4194303	259	46	1722084	8	2097151	0	38
5	07/16/2018 - 19:22:50.504ms	ISSymbol		0	4194303	272	49	1713976	8116	2097151	0	38
6	07/16/2018 - 19:22:50.535ms	ISSymbol		0	4194303	266	42	1713976	8116	2097151	0	38
Sampling #	Sampling Date/Time	Tasks Running	Thin Clients	Period (Min.)	Available Page Files (KB)	GDI Objects	User Objects	Available Virtual Memory (KB)	Allocated Virtual Memory (KB)	Available Physical Memory (KB)	Allocated Physical Memory (KB)	Physical Memory Load (%)
0	07/17/2018 - 18:52:52.558ms	ISSymbol		0	4194303	641	45	1685452	0	2097151	0	37
1	07/17/2018 - 18:52:52.785ms	ISSymbol		0	4194303	665	52	1678300	7152	2097151	0	37
2	07/17/2018 - 18:52:52.983ms	ISSymbol		0	4194303	677	65	1678300	7152	2097151	0	37
3	07/17/2018 - 18:52:53.033ms	ISSymbol		0	4194303	667	47	1678300	7152	2097151	0	37
4	07/17/2018 - 18:52:53.073ms	ISSymbol		0	4194303	667	46	1678300	7152	2097151	0	37
5	07/17/2018 - 18:52:54.989ms	ISSymbol		0	4194303	680	49	1678292	7160	2097151	0	37
6	07/17/2018 - 18:52:55.022ms	ISSymbol		0	4194303	674	42	1678292	7160	2097151	0	37
Sampling #	Sampling Date/Time	Tasks Running	Thin Clients	Period (Min.)	Available Page Files (KB)	GDI Objects	User Objects	Available Virtual Memory (KB)	Allocated Virtual Memory (KB)	Available Physical Memory (KB)	Allocated Physical Memory (KB)	Physical Memory Load (%)
0	07/19/2018 - 21:03:15.840ms	ISSymbol		0	4194303	624	44	1798712	0	3003780	0	60
1	07/19/2018 - 21:03:15.849ms	ISSymbol		0	4194303	636	57	1798712	0	3003780	0	60
2	07/19/2018 - 21:03:15.851ms	ISSymbol		0	4194303	628	42	1798712	0	3003796	-16	60
3	07/19/2018 - 21:03:15.856ms	ISSymbol		0	4194303	628	42	1798712	0	3003824	-44	60
Sampling #	Sampling Date/Time	Tasks Running	Thin Clients	Period (Min.)	Available Page Files (KB)	GDI Objects	User Objects	Available Virtual Memory (KB)	Allocated Virtual Memory (KB)	Available Physical Memory (KB)	Allocated Physical Memory (KB)	Physical Memory Load (%)
0	07/23/2018 - 13:02:11.780ms	ISSymbol		0	4194303	969	44	1687456	0	2097151	0	42
1	07/23/2018 - 13:02:11.970ms	ISSymbol		0	4194303	993	51	1679348	8108	2097151	0	42
2	07/23/2018 - 13:02:12.270ms	ISSymbol		0	4194303	1005	64	1687448	8	2097151	0	42
3	07/23/2018 - 13:02:12.306ms	ISSymbol		0	4194303	995	46	1687448	8	2097151	0	42
4	07/23/2018 - 13:02:12.341ms	ISSymbol		0	4194303	995	45	1687448	8	2097151	0	42
5	07/23/2018 - 13:02:14.393ms	ISSymbol		0	4194303	1008	48	1679340	8116	2097151	0	42
6	07/23/2018 - 13:02:14.439ms	ISSymbol		0	4194303	1002	41	1679340	8116	2097151	0	42
Sampling #	Sampling Date/Time	Tasks Running	Thin Clients	Period (Min.)	Available Page Files (KB)	GDI Objects	User Objects	Available Virtual Memory (KB)	Allocated Virtual Memory (KB)	Available Physical Memory (KB)	Allocated Physical Memory (KB)	Physical Memory Load (%)
0	07/30/2018 - 16:03:45.505ms	ISSymbol		0	2972728	897	48	1698312	0	2097151	0	61
1	07/30/2018 - 16:03:45.822ms	ISSymbol		0	2981448	909	61	1698312	0	2097151	0	61
2	07/30/2018 - 16:03:45.898ms	ISSymbol		0	2981448	901	46	1698312	0	2097151	0	61
3	07/30/2018 - 16:03:45.968ms	ISSymbol		0	2981540	901	45	1698588	-276	2097151	0	61
4	07/30/2018 - 16:03:47.367ms	ISSymbol		0	2944540	914	48	1690204	8108	2097151	0	61
5	07/30/2018 - 16:03:47.404ms	ISSymbol		0	2944540	908	41	1690204	8108	2097151	0	61
Sampling #	Sampling Date/Time	Tasks Running	Thin Clients	Period (Min.)	Available Page Files (KB)	GDI Objects	User Objects	Available Virtual Memory (KB)	Allocated Virtual Memory (KB)	Available Physical Memory (KB)	Allocated Physical Memory (KB)	Physical Memory Load (%)
0	07/31/2018 - 17:04:33.162ms	ISSymbol		0	3052940	1092	50	1658412	0	2097151	0	62
1	07/31/2018 - 17:04:33.533ms	ISSymbol		0	3051048	1104	63	1666512	-8100	2097151	0	62
2	07/31/2018 - 17:04:33.763ms	ISSymbol		0	3044584	1106	66	1666512	-8100	2097151	0	62
3	07/31/2018 - 17:04:33.910ms	ISSymbol		0	3044992	1096	48	1666512	-8100	2097151	0	62
4	07/31/2018 - 17:04:36.202ms	ISSymbol		0	3037984	1184	108	1665728	-7316	2097151	0	62
Sampling #	Sampling Date/Time	Tasks Running	Thin Clients	Period (Min.)	Available Page Files (KB)	GDI Objects	User Objects	Available Virtual Memory (KB)	Allocated Virtual Memory (KB)	Available Physical Memory (KB)	Allocated Physical Memory (KB)	Physical Memory Load (%)
0	08/09/2018 - 13:34:10.643ms	ISSymbol		0	3477512	743	45	1716240	0	2097151	0	51
1	08/09/2018 - 13:34:10.837ms	ISSymbol		0	3478580	767	52	1709088	7152	2097151	0	51
2	08/09/2018 - 13:34:11.067ms	ISSymbol		0	3481572	779	65	1709088	7152	2097151	0	51
3	08/09/2018 - 13:34:11.109ms	ISSymbol		0	3481572	769	47	1709088	7152	2097151	0	51
4	08/09/2018 - 13:34:11.151ms	ISSymbol		0	3481572	769	46	1709088	7152	2097151	0	51
5	08/09/2018 - 13:34:13.066ms	ISSymbol		0	3484116	782	49	1709080	7160	2097151	0	51
6	08/09/2018 - 13:34:13.155ms	ISSymbol		0	3482192	776	42	1709080	7160	2097151	0	51
Sampling #	Sampling Date/Time	Tasks Running	Thin Clients	Period (Min.)	Available Page Files (KB)	GDI Objects	User Objects	Available Virtual Memory (KB)	Allocated Virtual Memory (KB)	Available Physical Memory (KB)	Allocated Physical Memory (KB)	Physical Memory Load (%)
0	08/17/2018 - 15:27:13.834ms	ISSymbol		0	4194303	735	53	1657812	0	2097151	0	45
1	08/17/2018 - 15:27:13.873ms	ISSymbol		0	4194303	729	46	1657812	0	2097151	0	45
Sampling #	Sampling Date/Time	Tasks Running	Thin Clients	Period (Min.)	Available Page Files (KB)	GDI Objects	User Objects	Available Virtual Memory (KB)	Allocated Virtual Memory (KB)	Available Physical Memory (KB)	Allocated Physical Memory (KB)	Physical Memory Load (%)
0	08/17/2018 - 15:45:10.097ms	ISSymbol		0	4194303	234	50	1750852	0	2097151	0	43
Sampling #	Sampling Date/Time	Tasks Running	Thin Clients	Period (Min.)	Available Page Files (KB)	GDI Objects	User Objects	Available Virtual Memory (KB)	Allocated Virtual Memory (KB)	Available Physical Memory (KB)	Allocated Physical Memory (KB)	Physical Memory Load (%)
0	08/17/2018 - 16:24:19.130ms	ISSymbol		0	4194303	357	54	1731516	0	2097151	0	41
Sampling #	Sampling Date/Time	Tasks Running	Thin Clients	Period (Min.)	Available Page Files (KB)	GDI Objects	User Objects	Available Virtual Memory (KB)	Allocated Virtual Memory (KB)	Available Physical Memory (KB)	Allocated Physical Memory (KB)	Physical Memory Load (%)
0	08/20/2018 - 09:38:53.439ms	ISSymbol		0	4194303	203	49	1744552	0	2097151	0	33
Sampling #	Sampling Date/Time	Tasks Running	Thin Clients	Period (Min.)	Available Page Files (KB)	GDI Objects	User Objects	Available Virtual Memory (KB)	Allocated Virtual Memory (KB)	Available Physical Memory (KB)	Allocated Physical Memory (KB)	Physical Memory Load (%)
0	08/24/2018 - 08:55:12.132ms	ISSymbol		0	4194303	444	53	1734820	0	2097151	0	46
Sampling #	Sampling Date/Time	Tasks Running	Thin Clients	Period (Min.)	Available Page Files (KB)	GDI Objects	User Objects	Available Virtual Memory (KB)	Allocated Virtual Memory (KB)	Available Physical Memory (KB)	Allocated Physical Memory (KB)	Physical Memory Load (%)
0	08/27/2018 - 15:49:08.107ms	ISSymbol		0	1742180	268	72	1750340	0	2097151	0	52
1	08/27/2018 - 15:49:09.557ms	ISSymbol		0	1731288	262	54	1750316	24	2097151	0	52
Sampling #	Sampling Date/Time	Tasks Running	Thin Clients	Period (Min.)	Available Page Files (KB)	GDI Objects	User Objects	Available Virtual Memory (KB)	Allocated Virtual Memory (KB)	Available Physical Memory (KB)	Allocated Physical Memory (KB)	Physical Memory Load (%)
0	08/29/2018 - 15:44:19.439ms	ISSymbol		0	1855540	106	31	1766936	0	2097151	0	51
Sampling #	Sampling Date/Time	Tasks Running	Thin Clients	Period (Min.)	Available Page Files (KB)	GDI Objects	User Objects	Available Virtual Memory (KB)	Allocated Virtual Memory (KB)	Available Physical Memory (KB)	Allocated Physical Memory (KB)	Physical Memory Load (%)
0	08/30/2018 - 10:54:29.087ms	ISSymbol		0	1522836	73	41	1771356	0	2097151	0	50
Sampling #	Sampling Date/Time	Tasks Running	Thin Clients	Period (Min.)	Available Page Files (KB)	GDI Objects	User Objects	Available Virtual Memory (KB)	Allocated Virtual Memory (KB)	Available Physical Memory (KB)	Allocated Physical Memory (KB)	Physical Memory Load (%)
0	08/31/2018 - 13:11:50.374ms	ISSymbol		0	2439516	95	43	1735944	0	2097151	0	51
1	08/31/2018 - 13:11:50.397ms	ISSymbol		0	2439516	95	43	1735944	0	2097151	0	51
2	08/31/2018 - 13:11:50.419ms	ISSymbol		0	2439516	95	43	1735944	0	2097151	0	51
3	08/31/2018 - 13:11:50.439ms	ISSymbol		0	2439516	95	43	1735944	0	2097151	0	51
4	08/31/2018 - 13:11:50.463ms	ISSymbol		0	2439516	95	43	1735944	0	2097151	0	51
5	08/31/2018 - 13:11:50.483ms	ISSymbol		0	2439516	95	43	1735944	0	2097151	0	51
6	08/31/2018 - 13:11:50.506ms	ISSymbol		0	2439516	95	43	1735944	0	2097151	0	51
7	08/31/2018 - 13:11:50.525ms	ISSymbol		0	2439516	95	43	1735944	0	2097151	0	51
Sampling #	Sampling Date/Time	Tasks Running	Thin Clients	Period (Min.)	Available Page Files (KB)	GDI Objects	User Objects	Available Virtual Memory (KB)	Allocated Virtual Memory (KB)	Available Physical Memory (KB)	Allocated Physical Memory (KB)	Physical Memory Load (%)
0	09/06/2018 - 08:28:40.658ms	ISSymbol		0	4194303	510	45	1653880	0	2097151	0	48
Sampling #	Sampling Date/Time	Tasks Running	Thin Clients	Period (Min.)	Available Page Files (KB)	GDI Objects	User Objects	Available Virtual Memory (KB)	Allocated Virtual Memory (KB)	Available Physical Memory (KB)	Allocated Physical Memory (KB)	Physical Memory Load (%)
0	01/19/2019 - 16:30:58.832ms	ISSymbol		0	4194303	222	48	1747192	0	1744592	0	58
1	01/19/2019 - 16:30:59.094ms	ISSymbol		0	4194303	234	61	1747192	0	1746120	-1528	58
2	01/19/2019 - 16:30:59.218ms	ISSymbol		0	4194303	236	64	1747192	0	1746240	-1648	58
3	01/19/2019 - 16:30:59.255ms	ISSymbol		0	4194303	226	46	1747192	0	1746160	-1568	58
Sampling #	Sampling Date/Time	Tasks Running	Thin Clients	Period (Min.)	Available Page Files (KB)	GDI Objects	User Objects	Available Virtual Memory (KB)	Allocated Virtual Memory (KB)	Available Physical Memory (KB)	Allocated Physical Memory (KB)	Physical Memory Load (%)
0	01/23/2019 - 12:20:09.988ms	ISSymbol		0	4043796	405	45	1717364	0	1559912	0	62
1	01/23/2019 - 12:20:10.221ms	ISSymbol		0	4042892	429	52	1710268	7096	1559148	764	62
2	01/23/2019 - 12:20:10.464ms	ISSymbol		0	4042892	441	65	1710268	7096	1559348	564	62
3	01/23/2019 - 12:20:10.497ms	ISSymbol		0	4042892	431	47	1710268	7096	1554008	5904	62
4	01/23/2019 - 12:20:10.537ms	ISSymbol		0	4042892	431	46	1710268	7096	1553408	6504	62
Sampling #	Sampling Date/Time	Tasks Running	Thin Clients	Period (Min.)	Available Page Files (KB)	GDI Objects	User Objects	Available Virtual Memory (KB)	Allocated Virtual Memory (KB)	Available Physical Memory (KB)	Allocated Physical Memory (KB)	Physical Memory Load (%)
0	01/23/2019 - 13:55:51.400ms	ISSymbol		0	4053296	233	44	1745756	0	1555984	0	62
1	01/23/2019 - 13:55:51.463ms	ISSymbol		0	4053296	231	41	1745756	0	1544888	11096	63
2	01/23/2019 - 13:55:53.295ms	ISSymbol		0	4030596	231	40	1744972	784	1527188	28796	63
Sampling #	Sampling Date/Time	Tasks Running	Thin Clients	Period (Min.)	Available Page Files (KB)	GDI Objects	User Objects	Available Virtual Memory (KB)	Allocated Virtual Memory (KB)	Available Physical Memory (KB)	Allocated Physical Memory (KB)	Physical Memory Load (%)
0	01/23/2019 - 14:21:50.863ms	ISSymbol		0	3935188	753	45	1678460	0	1543340	0	63
1	01/23/2019 - 14:21:51.083ms	ISSymbol		0	3930912	777	52	1678452	8	1542836	504	63
2	01/23/2019 - 14:21:51.316ms	ISSymbol		0	3931668	789	65	1678452	8	1536796	6544	63
3	01/23/2019 - 14:21:51.346ms	ISSymbol		0	3931664	779	47	1678452	8	1536812	6528	63
4	01/23/2019 - 14:21:51.429ms	ISSymbol		0	3931664	779	46	1678452	8	1536804	6536	63
Sampling #	Sampling Date/Time	Tasks Running	Thin Clients	Period (Min.)	Available Page Files (KB)	GDI Objects	User Objects	Available Virtual Memory (KB)	Allocated Virtual Memory (KB)	Available Physical Memory (KB)	Allocated Physical Memory (KB)	Physical Memory Load (%)
0	01/28/2019 - 02:03:56.817ms	ISSymbol		0	4194303	1298	40	1739232	0	1703824	0	77
1	01/28/2019 - 02:03:56.838ms	ISSymbol		0	4194303	1322	47	1739224	8	1703664	160	77
2	01/28/2019 - 02:03:56.854ms	ISSymbol		0	4194303	1334	60	1739224	8	1703664	160	77
3	01/28/2019 - 02:03:56.866ms	ISSymbol		0	4194303	1324	42	1739224	8	1703716	108	77
4	01/28/2019 - 02:03:57.146ms	ISSymbol		0	4194303	1324	41	1739224	8	1705880	-2056	77
Sampling #	Sampling Date/Time	Tasks Running	Thin Clients	Period (Min.)	Available Page Files (KB)	GDI Objects	User Objects	Available Virtual Memory (KB)	Allocated Virtual Memory (KB)	Available Physical Memory (KB)	Allocated Physical Memory (KB)	Physical Memory Load (%)
0	01/31/2019 - 10:00:27.693ms	ISSymbol		0	3589572	230	44	1752224	0	1521268	0	63
1	01/31/2019 - 10:00:28.009ms	ISSymbol		0	3580800	254	51	1752216	8	1509436	11832	64
2	01/31/2019 - 10:00:28.300ms	ISSymbol		0	3576996	266	64	1752216	8	1507536	13732	64
3	01/31/2019 - 10:00:28.344ms	ISSymbol		0	3576996	256	46	1752216	8	1507688	13580	64
4	01/31/2019 - 10:00:28.688ms	ISSymbol		0	3576936	256	45	1752216	8	1498256	23012	64
Sampling #	Sampling Date/Time	Tasks Running	Thin Clients	Period (Min.)	Available Page Files (KB)	GDI Objects	User Objects	Available Virtual Memory (KB)	Allocated Virtual Memory (KB)	Available Physical Memory (KB)	Allocated Physical Memory (KB)	Physical Memory Load (%)
0	04/10/2019 - 09:30:34.165ms	ISSymbol		0	4194303	212	47	1749064	0	2097151	0	53
1	04/10/2019 - 09:30:34.857ms	ISSymbol		0	4194303	229	60	1757164	-8100	2097151	0	53
2	04/10/2019 - 09:30:35.041ms	ISSymbol		0	4194303	216	45	1757164	-8100	2097151	0	53
3	04/10/2019 - 09:30:35.140ms	ISSymbol		0	4194303	216	44	1757436	-8372	2097151	0	53
4	04/10/2019 - 09:30:38.269ms	ISSymbol		0	4194303	228	47	1749056	8	2097151	0	53
5	04/10/2019 - 09:30:38.475ms	ISSymbol		0	4194303	222	40	1749056	8	2097151	0	53
